[
    {
        "documentType": 20,
        "type": 0,
        "label": "Marchandises",
        "description": "Marchandises",
        "chartAccountItemId": null,
        "parentId": null,
        "chartAccountItem": null,
        "parent": null,
        "subClassification": [],
        "products": [],
        "expenses": [],
        "id": 1,
        "createdOn": "2020-06-23T10:54:49+00:00",
        "lastModifiedOn": "2020-06-23T10:54:52+00:00",
        "searchTerms": "marchandises"
    },
    {
        "documentType": 20,
        "type": 0,
        "label": "Locaux et bâtiments",
        "description": "Locaux et bâtiments",
        "chartAccountItemId": null,
        "parentId": null,
        "chartAccountItem": null,
        "parent": null,
        "subClassification": [],
        "products": [],
        "expenses": [],
        "id": 2,
        "createdOn": "2020-06-23T10:54:49+00:00",
        "lastModifiedOn": "2020-06-23T10:54:52+00:00",
        "searchTerms": "locaux et batiments"
    },
    {
        "documentType": 20,
        "type": 0,
        "label": "Communication et marketing",
        "description": "Communication et marketing",
        "chartAccountItemId": null,
        "parentId": null,
        "chartAccountItem": null,
        "parent": null,
        "subClassification": [],
        "products": [],
        "expenses": [],
        "id": 3,
        "createdOn": "2020-06-23T10:54:49+00:00",
        "lastModifiedOn": "2020-06-23T10:54:52+00:00",
        "searchTerms": "communication et marketing"
    },
    {
        "documentType": 20,
        "type": 0,
        "label": "Frais de commercialisation",
        "description": "Frais de commercialisation",
        "chartAccountItemId": null,
        "parentId": null,
        "chartAccountItem": null,
        "parent": null,
        "subClassification": [],
        "products": [],
        "expenses": [],
        "id": 4,
        "createdOn": "2020-06-23T10:54:49+00:00",
        "lastModifiedOn": "2020-06-23T10:54:52+00:00",
        "searchTerms": "frais de commercialisation"
    },
    {
        "documentType": 20,
        "type": 0,
        "label": "Frais de bureau",
        "description": "Frais de bureau",
        "chartAccountItemId": null,
        "parentId": null,
        "chartAccountItem": null,
        "parent": null,
        "subClassification": [],
        "products": [],
        "expenses": [],
        "id": 5,
        "createdOn": "2020-06-23T10:54:49+00:00",
        "lastModifiedOn": "2020-06-23T10:54:52+00:00",
        "searchTerms": "Frais de bureau"
    },
    {
        "documentType": 20,
        "type": 0,
        "label": "Gestion Véhicule",
        "description": "Gestion Véhicule",
        "chartAccountItemId": null,
        "parentId": null,
        "chartAccountItem": null,
        "parent": null,
        "subClassification": [],
        "products": [],
        "expenses": [],
        "id": 6,
        "createdOn": "2020-06-23T10:54:49+00:00",
        "lastModifiedOn": "2020-06-23T10:54:52+00:00",
        "searchTerms": "Gestion Véhicule"
    },
    {
        "documentType": 20,
        "type": 0,
        "label": "Achats immobilisés",
        "description": "Achats immobilisés",
        "chartAccountItemId": null,
        "parentId": null,
        "chartAccountItem": null,
        "parent": null,
        "subClassification": [],
        "products": [],
        "expenses": [],
        "id": 7,
        "createdOn": "2020-06-23T10:54:49+00:00",
        "lastModifiedOn": "2020-06-23T10:54:52+00:00",
        "searchTerms": "Achats immobilisés"
    },
    {
        "documentType": 20,
        "type": 0,
        "label": "Prestation de services",
        "description": "Prestation de services",
        "chartAccountItemId": null,
        "parentId": null,
        "chartAccountItem": null,
        "parent": null,
        "subClassification": [],
        "products": [],
        "expenses": [],
        "id": 8,
        "createdOn": "2020-06-23T10:54:49+00:00",
        "lastModifiedOn": "2020-06-23T10:54:52+00:00",
        "searchTerms": "Prestation de services"
    },
    {
        "documentType": 20,
        "type": 0,
        "label": "Assurances",
        "description": "Assurances",
        "chartAccountItemId": null,
        "parentId": null,
        "chartAccountItem": null,
        "parent": null,
        "subClassification": [],
        "products": [],
        "expenses": [],
        "id": 9,
        "createdOn": "2020-06-23T10:54:49+00:00",
        "lastModifiedOn": "2020-06-23T10:54:52+00:00",
        "searchTerms": "Assurances"
    },
    {
        "documentType": 20,
        "type": 0,
        "label": "Autres Charges",
        "description": " Autres Charges",
        "chartAccountItemId": null,
        "parentId": null,
        "chartAccountItem": null,
        "parent": null,
        "subClassification": [],
        "products": [],
        "expenses": [],
        "id": 10,
        "createdOn": "2020-06-23T10:54:49+00:00",
        "lastModifiedOn": "2020-06-23T10:54:52+00:00",
        "searchTerms": "Autres Charges"
    },
    {
        "documentType": 20,
        "type": 0,
        "label": "Achat de marchandises",
        "description": "Achat de marchandises",
        "chartAccountItemId": "46",
        "parentId": 1,
        "chartAccountItem": null,
        "parent": null,
        "subClassification": [],
        "products": [],
        "expenses": [],
        "id": 11,
        "createdOn": "2020-06-23T10:54:49+00:00",
        "lastModifiedOn": "2020-06-23T10:54:52+00:00",
        "searchTerms": "Achat de marchandises"
    },
    {
        "documentType": 20,
        "type": 0,
        "label": "Loyer",
        "description": "Loyer",
        "chartAccountItemId": "49",
        "parentId": 2,
        "chartAccountItem": null,
        "parent": null,
        "subClassification": [],
        "products": [],
        "expenses": [],
        "id": 12,
        "createdOn": "2020-06-23T10:54:49+00:00",
        "lastModifiedOn": "2020-06-23T10:54:52+00:00",
        "searchTerms": "Loyer"
    },
    {
        "documentType": 20,
        "type": 0,
        "label": "Chauffage et ventilation",
        "description": "Chauffage et ventilation",
        "chartAccountItemId": "45",
        "parentId": 2,
        "chartAccountItem": null,
        "parent": null,
        "subClassification": [],
        "products": [],
        "expenses": [],
        "id": 13,
        "createdOn": "2020-06-23T10:54:49+00:00",
        "lastModifiedOn": "2020-06-23T10:54:52+00:00",
        "searchTerms": "Chauffage et ventilation"
    },
    {
        "documentType": 20,
        "type": 0,
        "label": "Électricité, Eau, Gaz/fioul",
        "description": "Électricité, Eau, Gaz/fioul",
        "chartAccountItemId": "45",
        "parentId": 2,
        "chartAccountItem": null,
        "parent": null,
        "subClassification": [],
        "products": [],
        "expenses": [],
        "id": 14,
        "createdOn": "2020-06-23T10:54:49+00:00",
        "lastModifiedOn": "2020-06-23T10:54:52+00:00",
        "searchTerms": "Électricité, Eau, Gaz/fioul"
    },
    {
        "documentType": 20,
        "type": 0,
        "label": "Déchets",
        "description": "Déchets",
        "chartAccountItemId": "63",
        "parentId": 2,
        "chartAccountItem": null,
        "parent": null,
        "subClassification": [],
        "products": [],
        "expenses": [],
        "id": 15,
        "createdOn": "2020-06-23T10:54:49+00:00",
        "lastModifiedOn": "2020-06-23T10:54:52+00:00",
        "searchTerms": "Déchets"
    },
    {
        "documentType": 20,
        "type": 0,
        "label": "Nettoyage et maintenance",
        "description": "Nettoyage et maintenance",
        "chartAccountItemId": "51",
        "parentId": 2,
        "chartAccountItem": null,
        "parent": null,
        "subClassification": [],
        "products": [],
        "expenses": [],
        "id": 16,
        "createdOn": "2020-06-23T10:54:49+00:00",
        "lastModifiedOn": "2020-06-23T10:54:52+00:00",
        "searchTerms": "Nettoyage et maintenance"
    },
    {
        "documentType": 20,
        "type": 0,
        "label": "Publicité",
        "description": "Publicité",
        "chartAccountItemId": "58",
        "parentId": 3,
        "chartAccountItem": null,
        "parent": null,
        "subClassification": [],
        "products": [],
        "expenses": [],
        "id": 17,
        "createdOn": "2020-06-23T10:54:49+00:00",
        "lastModifiedOn": "2020-06-23T10:54:52+00:00",
        "searchTerms": "Publicité"
    },
    {
        "documentType": 20,
        "type": 0,
        "label": "Cadeaux clientèle",
        "description": "Cadeaux clientèle",
        "chartAccountItemId": "58",
        "parentId": 3,
        "chartAccountItem": null,
        "parent": null,
        "subClassification": [],
        "products": [],
        "expenses": [],
        "id": 18,
        "createdOn": "2020-06-23T10:54:49+00:00",
        "lastModifiedOn": "2020-06-23T10:54:52+00:00",
        "searchTerms": "Cadeaux clientèle"
    },
    {
        "documentType": 20,
        "type": 0,
        "label": "Frais de représentation",
        "description": "Frais de représentation",
        "chartAccountItemId": "58",
        "parentId": 3,
        "chartAccountItem": null,
        "parent": null,
        "subClassification": [],
        "products": [],
        "expenses": [],
        "id": 19,
        "createdOn": "2020-06-23T10:54:49+00:00",
        "lastModifiedOn": "2020-06-23T10:54:52+00:00",
        "searchTerms": "Frais de représentation"
    },
    {
        "documentType": 20,
        "type": 0,
        "label": "Frais de port",
        "description": "Frais de port",
        "chartAccountItemId": "59",
        "parentId": 4,
        "chartAccountItem": null,
        "parent": null,
        "subClassification": [],
        "products": [],
        "expenses": [],
        "id": 20,
        "createdOn": "2020-06-23T10:54:49+00:00",
        "lastModifiedOn": "2020-06-23T10:54:52+00:00",
        "searchTerms": "Frais de port"
    },
    {
        "documentType": 20,
        "type": 0,
        "label": "Emballage",
        "description": "Emballage",
        "chartAccountItemId": "42",
        "parentId": 4,
        "chartAccountItem": null,
        "parent": null,
        "subClassification": [],
        "products": [],
        "expenses": [],
        "id": 21,
        "createdOn": "2020-06-23T10:54:49+00:00",
        "lastModifiedOn": "2020-06-23T10:54:52+00:00",
        "searchTerms": "Emballage"
    },
    {
        "documentType": 20,
        "type": 0,
        "label": "Fournitures de bureau",
        "description": "Fournitures de bureau",
        "chartAccountItemId": "45",
        "parentId": 5,
        "chartAccountItem": null,
        "parent": null,
        "subClassification": [],
        "products": [],
        "expenses": [],
        "id": 22,
        "createdOn": "2020-06-23T10:54:49+00:00",
        "lastModifiedOn": "2020-06-23T10:54:52+00:00",
        "searchTerms": "Fournitures de bureau"
    },
    {
        "documentType": 20,
        "type": 0,
        "label": "Affranchissement",
        "description": "Affranchissement",
        "chartAccountItemId": "61",
        "parentId": 5,
        "chartAccountItem": null,
        "parent": null,
        "subClassification": [],
        "products": [],
        "expenses": [],
        "id": 23,
        "createdOn": "2020-06-23T10:54:49+00:00",
        "lastModifiedOn": "2020-06-23T10:54:52+00:00",
        "searchTerms": "Affranchissement"
    },
    {
        "documentType": 20,
        "type": 0,
        "label": "Internet, Téléphone et communications",
        "description": "Internet, Téléphone et communications",
        "chartAccountItemId": "61",
        "parentId": 5,
        "chartAccountItem": null,
        "parent": null,
        "subClassification": [],
        "products": [],
        "expenses": [],
        "id": 24,
        "createdOn": "2020-06-23T10:54:49+00:00",
        "lastModifiedOn": "2020-06-23T10:54:52+00:00",
        "searchTerms": "Internet, Téléphone et communications"
    },
    {
        "documentType": 20,
        "type": 0,
        "label": "Livres et magazines",
        "description": "Livres et magazines",
        "chartAccountItemId": "58",
        "parentId": 5,
        "chartAccountItem": null,
        "parent": null,
        "subClassification": [],
        "products": [],
        "expenses": [],
        "id": 26,
        "createdOn": "2020-06-23T10:54:49+00:00",
        "lastModifiedOn": "2020-06-23T10:54:52+00:00",
        "searchTerms": "Livres et magazines"
    },
    {
        "documentType": 20,
        "type": 0,
        "label": "Frais liés à l'entretien du véhicule",
        "description": "Frais liés à l'entretien du véhicule",
        "chartAccountItemId": "51",
        "parentId": 6,
        "chartAccountItem": null,
        "parent": null,
        "subClassification": [],
        "products": [],
        "expenses": [],
        "id": 27,
        "createdOn": "2020-06-23T10:54:49+00:00",
        "lastModifiedOn": "2020-06-23T10:54:52+00:00",
        "searchTerms": "Frais liés à l'entretien du véhicule"
    },
    {
        "documentType": 20,
        "type": 0,
        "label": "Location véhicule",
        "description": "Location véhicule",
        "chartAccountItemId": "49",
        "parentId": 6,
        "chartAccountItem": null,
        "parent": null,
        "subClassification": [],
        "products": [],
        "expenses": [],
        "id": 28,
        "createdOn": "2020-06-23T10:54:49+00:00",
        "lastModifiedOn": "2020-06-23T10:54:52+00:00",
        "searchTerms": "Location véhicule"
    },
    {
        "documentType": 20,
        "type": 0,
        "label": "Taxes véhicule",
        "description": "Taxes véhicule",
        "chartAccountItemId": "64",
        "parentId": 6,
        "chartAccountItem": null,
        "parent": null,
        "subClassification": [],
        "products": [],
        "expenses": [],
        "id": 29,
        "createdOn": "2020-06-23T10:54:49+00:00",
        "lastModifiedOn": "2020-06-23T10:54:52+00:00",
        "searchTerms": "Taxes véhicule"
    },
    {
        "documentType": 20,
        "type": 0,
        "label": "leasing véhicules ou Crédit bail",
        "description": "leasing véhicules ou Crédit bail",
        "chartAccountItemId": "48",
        "parentId": 6,
        "chartAccountItem": null,
        "parent": null,
        "subClassification": [],
        "products": [],
        "expenses": [],
        "id": 30,
        "createdOn": "2020-06-23T10:54:49+00:00",
        "lastModifiedOn": "2020-06-23T10:54:52+00:00",
        "searchTerms": "leasing véhicules ou Crédit bail"
    },
    {
        "documentType": 20,
        "type": 0,
        "label": "Carburants",
        "description": "Carburants",
        "chartAccountItemId": "45",
        "parentId": 6,
        "chartAccountItem": null,
        "parent": null,
        "subClassification": [],
        "products": [],
        "expenses": [],
        "id": 31,
        "createdOn": "2020-06-23T10:54:49+00:00",
        "lastModifiedOn": "2020-06-23T10:54:52+00:00",
        "searchTerms": "Carburants"
    },
    {
        "documentType": 20,
        "type": 0,
        "label": "Sous-traitance",
        "description": "Sous-traitance",
        "chartAccountItemId": "41",
        "parentId": 8,
        "chartAccountItem": null,
        "parent": null,
        "subClassification": [],
        "products": [],
        "expenses": [],
        "id": 37,
        "createdOn": "2020-06-23T10:54:49+00:00",
        "lastModifiedOn": "2020-06-23T10:54:52+00:00",
        "searchTerms": "Sous-traitance"
    },
    {
        "documentType": 20,
        "type": 0,
        "label": "Prestations externes",
        "description": "Prestations externes",
        "chartAccountItemId": "43",
        "parentId": 8,
        "chartAccountItem": null,
        "parent": null,
        "subClassification": [],
        "products": [],
        "expenses": [],
        "id": 38,
        "createdOn": "2020-06-23T10:54:49+00:00",
        "lastModifiedOn": "2020-06-23T10:54:52+00:00",
        "searchTerms": "Prestations externes"
    },
    {
        "documentType": 20,
        "type": 0,
        "label": "Conseils et honoraires",
        "description": "Conseils et honoraires",
        "chartAccountItemId": "57",
        "parentId": 8,
        "chartAccountItem": null,
        "parent": null,
        "subClassification": [],
        "products": [],
        "expenses": [],
        "id": 39,
        "createdOn": "2020-06-23T10:54:49+00:00",
        "lastModifiedOn": "2020-06-23T10:54:52+00:00",
        "searchTerms": "Conseils et honoraires"
    },
    {
        "documentType": 20,
        "type": 0,
        "label": "Assurance véhicule et Primes d'assurance",
        "description": "Assurance véhicule et Primes d'assurance",
        "chartAccountItemId": "52",
        "parentId": 9,
        "chartAccountItem": null,
        "parent": null,
        "subClassification": [],
        "products": [],
        "expenses": [],
        "id": 40,
        "createdOn": "2020-06-23T10:54:49+00:00",
        "lastModifiedOn": "2020-06-23T10:54:52+00:00",
        "searchTerms": "Assurance véhicule et Primes d'assurance"
    },
    {
        "documentType": 20,
        "type": 0,
        "label": "Assurance marchandise",
        "description": "Assurance marchandise",
        "chartAccountItemId": "59",
        "parentId": 9,
        "chartAccountItem": null,
        "parent": null,
        "subClassification": [],
        "products": [],
        "expenses": [],
        "id": 41,
        "createdOn": "2020-06-23T10:54:49+00:00",
        "lastModifiedOn": "2020-06-23T10:54:52+00:00",
        "searchTerms": "Assurance marchandise"
    },
    {
        "documentType": 20,
        "type": 0,
        "label": "Autres charges de gestion",
        "description": "Autres charges de gestion",
        "chartAccountItemId": "63",
        "parentId": 10,
        "chartAccountItem": null,
        "parent": null,
        "subClassification": [],
        "products": [],
        "expenses": [],
        "id": 42,
        "createdOn": "2020-06-23T10:54:49+00:00",
        "lastModifiedOn": "2020-06-23T10:54:52+00:00",
        "searchTerms": "Autres charges de gestion"
    },
    {
        "documentType": 20,
        "type": 1,
        "label": "Produits",
        "description": "Produits",
        "chartAccountItemId": null,
        "parentId": null,
        "chartAccountItem": null,
        "parent": null,
        "subClassification": [],
        "products": [],
        "expenses": [],
        "id": 43,
        "createdOn": "2020-06-23T11:13:32.250667+00:00",
        "lastModifiedOn": "2020-06-23T11:13:32.250667+00:00",
        "searchTerms": "Produits"
    },
    {
        "documentType": 20,
        "type": 1,
        "label": "Services",
        "description": "Services",
        "chartAccountItemId": null,
        "parentId": null,
        "chartAccountItem": null,
        "parent": null,
        "subClassification": [],
        "products": [],
        "expenses": [],
        "id": 44,
        "createdOn": "2020-06-23T11:13:32.250667+00:00",
        "lastModifiedOn": "2020-06-23T11:13:32.250667+00:00",
        "searchTerms": "Services"
    },
    {
        "documentType": 20,
        "type": 1,
        "label": "Autres",
        "description": "Autres",
        "chartAccountItemId": null,
        "parentId": null,
        "chartAccountItem": null,
        "parent": null,
        "subClassification": [],
        "products": [],
        "expenses": [],
        "id": 45,
        "createdOn": "2020-06-23T11:13:32.250667+00:00",
        "lastModifiedOn": "2020-06-23T11:13:32.250667+00:00",
        "searchTerms": "Autres"
    },
    {
        "documentType": 20,
        "type": 1,
        "label": "Produit fini",
        "description": "Produit fini",
        "chartAccountItemId": "20",
        "parentId": 43,
        "chartAccountItem": null,
        "parent": null,
        "subClassification": [],
        "products": [],
        "expenses": [],
        "id": 46,
        "createdOn": "2020-06-23T11:13:32.250667+00:00",
        "lastModifiedOn": "2020-06-23T11:13:32.250667+00:00",
        "searchTerms": "Produit fini"
    },
    {
        "documentType": 20,
        "type": 1,
        "label": "Marchandise",
        "description": "Marchandise",
        "chartAccountItemId": "22",
        "parentId": 43,
        "chartAccountItem": null,
        "parent": null,
        "subClassification": [],
        "products": [],
        "expenses": [],
        "id": 47,
        "createdOn": "2020-06-23T11:13:32.250667+00:00",
        "lastModifiedOn": "2020-06-23T11:13:32.250667+00:00",
        "searchTerms": "Marchandise"
    },
    {
        "documentType": 20,
        "type": 1,
        "label": "Services",
        "description": "Services",
        "chartAccountItemId": "21",
        "parentId": 44,
        "chartAccountItem": null,
        "parent": null,
        "subClassification": [],
        "products": [],
        "expenses": [],
        "id": 48,
        "createdOn": "2020-06-23T11:13:32.250667+00:00",
        "lastModifiedOn": "2020-06-23T11:13:32.250667+00:00",
        "searchTerms": "Services"
    },
    {
        "documentType": 20,
        "type": 1,
        "label": "Main d'oeuvre",
        "description": "Main d'oeuvre",
        "chartAccountItemId": "21",
        "parentId": 44,
        "chartAccountItem": null,
        "parent": null,
        "subClassification": [],
        "products": [],
        "expenses": [],
        "id": 49,
        "createdOn": "2020-06-23T11:13:32.250667+00:00",
        "lastModifiedOn": "2020-06-23T11:13:32.250667+00:00",
        "searchTerms": "Main d'oeuvre"
    },
    {
        "documentType": 20,
        "type": 1,
        "label": "Abonnement",
        "description": "Abonnement",
        "chartAccountItemId": "21",
        "parentId": 44,
        "chartAccountItem": null,
        "parent": null,
        "subClassification": [],
        "products": [],
        "expenses": [],
        "id": 50,
        "createdOn": "2020-06-23T11:13:32.250667+00:00",
        "lastModifiedOn": "2020-06-23T11:13:32.250667+00:00",
        "searchTerms": "Abonnement"
    },
    {
        "documentType": 20,
        "type": 1,
        "label": "Frais de Port",
        "description": "Frais de Port",
        "chartAccountItemId": "23",
        "parentId": 45,
        "chartAccountItem": null,
        "parent": null,
        "subClassification": [],
        "products": [],
        "expenses": [],
        "id": 51,
        "createdOn": "2020-06-23T11:13:32.250667+00:00",
        "lastModifiedOn": "2020-06-23T11:13:32.250667+00:00",
        "searchTerms": "Frais de Port"
    },
    {
        "documentType": 20,
        "type": 1,
        "label": "Achat Terrain",
        "description": "Achat Terrain",
        "chartAccountItemId": "210",
        "parentId": 7,
        "chartAccountItem": null,
        "parent": null,
        "subClassification": [],
        "products": [],
        "expenses": [],
        "id": 511,
        "createdOn": "2020-06-23T11:13:32.250667+00:00",
        "lastModifiedOn": "2020-06-23T11:13:32.250667+00:00",
        "searchTerms": "Achat Terrain"
    },
    {
        "documentType": 20,
        "type": 1,
        "label": "Achat Mobilier de bureau",
        "description": "Achat Mobilier de bureau",
        "chartAccountItemId": "211",
        "parentId": 7,
        "chartAccountItem": null,
        "parent": null,
        "subClassification": [],
        "products": [],
        "expenses": [],
        "id": 512,
        "createdOn": "2020-06-23T11:13:32.250667+00:00",
        "lastModifiedOn": "2020-06-23T11:13:32.250667+00:00",
        "searchTerms": "Achat Mobilier de bureau"
    },
    {
        "documentType": 20,
        "type": 1,
        "label": "Achat Matériel de bureau",
        "description": "Achat Matériel de bureau",
        "chartAccountItemId": "212",
        "parentId": 7,
        "chartAccountItem": null,
        "parent": null,
        "subClassification": [],
        "products": [],
        "expenses": [],
        "id": 513,
        "createdOn": "2020-06-23T11:13:32.250667+00:00",
        "lastModifiedOn": "2020-06-23T11:13:32.250667+00:00",
        "searchTerms": "Achat Matériel de bureau"
    },
    {
        "documentType": 20,
        "type": 1,
        "label": "Achat de véhicule",
        "description": "Achat de véhicule",
        "chartAccountItemId": "213",
        "parentId": 7,
        "chartAccountItem": null,
        "parent": null,
        "subClassification": [],
        "products": [],
        "expenses": [],
        "id": 514,
        "createdOn": "2020-06-23T11:13:32.250667+00:00",
        "lastModifiedOn": "2020-06-23T11:13:32.250667+00:00",
        "searchTerms": "Achat de véhicule"
    },
    {
        "documentType": 20,
        "type": 1,
        "label": "Achat materiel informatique",
        "description": "Achat materiel informatique",
        "chartAccountItemId": "212",
        "parentId": 7,
        "chartAccountItem": null,
        "parent": null,
        "subClassification": [],
        "products": [],
        "expenses": [],
        "id": 515,
        "createdOn": "2020-06-23T11:13:32.250667+00:00",
        "lastModifiedOn": "2020-06-23T11:13:32.250667+00:00",
        "searchTerms": "Achat materiel informatique"
    },
    {
        "documentType": 20,
        "type": 1,
        "label": "Constructions",
        "description": "Constructions",
        "chartAccountItemId": "213",
        "parentId": 7,
        "chartAccountItem": null,
        "parent": null,
        "subClassification": [],
        "products": [],
        "expenses": [],
        "id": 516,
        "createdOn": "2020-06-23T11:13:32.250667+00:00",
        "lastModifiedOn": "2020-06-23T11:13:32.250667+00:00",
        "searchTerms": "Constructions"
    },
    {
        "documentType": 20,
        "type": 1,
        "label": "Brevets et droits",
        "description": "Brevets et droits",
        "chartAccountItemId": "215",
        "parentId": 7,
        "chartAccountItem": null,
        "parent": null,
        "subClassification": [],
        "products": [],
        "expenses": [],
        "id": 517,
        "createdOn": "2020-06-23T11:13:32.250667+00:00",
        "lastModifiedOn": "2020-06-23T11:13:32.250667+00:00",
        "searchTerms": "Brevets et droits"
    },
    {
        "documentType": 20,
        "type": 1,
        "label": "Achat Équipements, machines et logiciels",
        "description": "Achat Équipements, machines et logiciels",
        "chartAccountItemId": "216",
        "parentId": 7,
        "chartAccountItem": null,
        "parent": null,
        "subClassification": [],
        "products": [],
        "expenses": [],
        "id": 518,
        "createdOn": "2020-06-23T11:13:32.250667+00:00",
        "lastModifiedOn": "2020-06-23T11:13:32.250667+00:00",
        "searchTerms": "Achat Équipements, machines et logiciels"
    }
]