[
  {
    "value": "Appel d'Offre",
    "documents": [],
    "id": "1",
    "createdOn": "2020-02-21T12:47:11+00:00",
    "lastModifiedOn": "2020-02-21T12:47:12+00:00",
    "searchTerms": "Appel d'Offre"
  },
  {
    "value": "Commandes",
    "documents": [],
    "id": "2",
    "createdOn": "2020-02-21T12:47:11+00:00",
    "lastModifiedOn": "2020-02-21T12:47:12+00:00",
    "searchTerms": "Commandes"
  },
  {
    "value": "Devis",
    "documents": [],
    "id": "3",
    "createdOn": "2020-02-21T12:47:11+00:00",
    "lastModifiedOn": "2020-02-21T12:47:12+00:00",
    "searchTerms": "Devis"
  },
  {
    "value": "DOE",
    "documents": [],
    "id": "4",
    "createdOn": "2020-02-21T12:47:11+00:00",
    "lastModifiedOn": "2020-02-21T12:47:12+00:00",
    "searchTerms": "DOE"
  },
  {
    "value": "Facturation",
    "documents": [],
    "id": "5",
    "createdOn": "2020-02-21T12:47:11+00:00",
    "lastModifiedOn": "2020-02-21T12:47:12+00:00",
    "searchTerms": "Facturation"
  },
  {
    "value": "Photos",
    "documents": [],
    "id": "6",
    "createdOn": "2020-02-21T12:47:11+00:00",
    "lastModifiedOn": "2020-02-21T12:47:12+00:00",
    "searchTerms": "Photos"
  },
  {
    "value": "Planning",
    "documents": [],
    "id": "7",
    "createdOn": "2020-02-21T12:47:11+00:00",
    "lastModifiedOn": "2020-02-21T12:47:12+00:00",
    "searchTerms": "Planning"
  },
  {
    "value": "Suivi de chantier",
    "documents": [],
    "id": "8",
    "createdOn": "2020-02-21T12:47:11+00:00",
    "lastModifiedOn": "2020-02-21T12:47:12+00:00",
    "searchTerms": "Suivi de chantier"
  }
]