<svg id="Creerfacture" xmlns="http://www.w3.org/2000/svg" width="40" height="40" viewBox="0 0 40 40">
  <g id="Groupe_91" data-name="Groupe 91">
    <g id="Composant_34_1" data-name="Composant 34 – 1">
      <g id="Ellipse_359" data-name="Ellipse 359" fill="rgba(5,101,141,0.13)" stroke="#05658d" stroke-width="1">
        <circle cx="20" cy="20" r="20" stroke="none"/>
        <circle cx="20" cy="20" r="19.5" fill="none"/>
      </g>
    </g>
    <g id="file-text" transform="translate(8 8)">
      <path id="Tracé_534" data-name="Tracé 534" d="M14,2H6A2,2,0,0,0,4,4V20a2,2,0,0,0,2,2H18a2,2,0,0,0,2-2V8Z" fill="none" stroke="#05658d" stroke-linecap="round" stroke-linejoin="round" stroke-width="2"/>
      <path id="Tracé_535" data-name="Tracé 535" d="M14,2V8h6" fill="none" stroke="#05658d" stroke-linecap="round" stroke-linejoin="round" stroke-width="2"/>
      <line id="Ligne_69" data-name="Ligne 69" x1="8" transform="translate(8 13)" fill="none" stroke="#05658d" stroke-linecap="round" stroke-linejoin="round" stroke-width="2"/>
      <line id="Ligne_70" data-name="Ligne 70" x1="8" transform="translate(8 17)" fill="none" stroke="#05658d" stroke-linecap="round" stroke-linejoin="round" stroke-width="2"/>
      <path id="Tracé_536" data-name="Tracé 536" d="M10,9H8" fill="none" stroke="#05658d" stroke-linecap="round" stroke-linejoin="round" stroke-width="2"/>
    </g>
  </g>
</svg>
