<svg xmlns="http://www.w3.org/2000/svg" width="40" height="40" viewBox="0 0 40 40">
  <g id="Bon_de_commande_fournisseur" data-name="Bon de commande fournisseur" transform="translate(-12318 -3068)">
    <g id="Groupe_1016" data-name="Groupe 1016" transform="translate(12318 3068)">
      <g id="Ellipse_359" data-name="Ellipse 359" fill="none" stroke="#feb969" stroke-width="1">
        <circle cx="20" cy="20" r="20" stroke="none"/>
        <circle cx="20" cy="20" r="19.5" fill="none"/>
      </g>
    </g>
    <g id="Calque_2" data-name="Calque 2" transform="translate(12329 3077)">
      <g id="Calque_1" data-name="Calque 1">
        <path id="Tracé_1271" data-name="Tracé 1271" d="M11,1H3A2,2,0,0,0,1,3V19a2,2,0,0,0,2,2H15a2,2,0,0,0,2-2V7Z" fill="none" stroke="#feb969" stroke-linecap="round" stroke-linejoin="round" stroke-width="2"/>
        <path id="Tracé_1272" data-name="Tracé 1272" d="M11,1V7h6" fill="none" stroke="#feb969" stroke-linecap="round" stroke-linejoin="round" stroke-width="2"/>
        <path id="Tracé_1273" data-name="Tracé 1273" d="M13.1,18.36v-1a2.05,2.05,0,0,0-2-2H7a2.05,2.05,0,0,0-2,2v1" fill="none" stroke="#feb969" stroke-linecap="round" stroke-linejoin="round" stroke-width="1.3"/>
        <circle id="Ellipse_411" data-name="Ellipse 411" cx="2.05" cy="2.05" r="2.05" transform="translate(6.95 9.13)" fill="none" stroke="#feb969" stroke-linecap="round" stroke-linejoin="round" stroke-width="1.3"/>
      </g>
    </g>
  </g>
</svg>
