<svg xmlns="http://www.w3.org/2000/svg" width="40" height="40" viewBox="0 0 40 40">
  <g id="excelExp" transform="translate(-10737 -3502)">
    <g id="Print" transform="translate(9668 2788)">
      <g id="Groupe_859" data-name="Groupe 859" transform="translate(1069 714)">
        <g id="Tracé_538" data-name="Tracé 538" fill="none">
          <path d="M20,0A20,20,0,1,1,0,20,20,20,0,0,1,20,0Z" stroke="none"/>
          <path d="M 20 1 C 17.4345703125 1 14.94642066955566 1.502220153808594 12.60465049743652 2.492698669433594 C 10.34226036071777 3.449611663818359 8.310220718383789 4.819721221923828 6.564968109130859 6.564968109130859 C 4.819721221923828 8.310220718383789 3.449611663818359 10.34226036071777 2.492698669433594 12.60465049743652 C 1.502220153808594 14.94642066955566 1 17.4345703125 1 20 C 1 22.5654296875 1.502220153808594 25.05358123779297 2.492698669433594 27.39535140991211 C 3.449611663818359 29.65773963928223 4.819721221923828 31.68978118896484 6.564968109130859 33.43502807617188 C 8.310220718383789 35.18027877807617 10.34226036071777 36.55038833618164 12.60465049743652 37.50730133056641 C 14.94642066955566 38.49777984619141 17.4345703125 39 20 39 C 22.5654296875 39 25.05358123779297 38.49777984619141 27.39535140991211 37.50730133056641 C 29.65773963928223 36.55038833618164 31.68978118896484 35.18027877807617 33.43502807617188 33.43502807617188 C 35.18027877807617 31.68978118896484 36.55038833618164 29.65773963928223 37.50730133056641 27.39535140991211 C 38.49777984619141 25.05358123779297 39 22.5654296875 39 20 C 39 17.4345703125 38.49777984619141 14.94642066955566 37.50730133056641 12.60465049743652 C 36.55038833618164 10.34226036071777 35.18027877807617 8.310220718383789 33.43502807617188 6.564968109130859 C 31.68978118896484 4.819721221923828 29.65773963928223 3.449611663818359 27.39535140991211 2.492698669433594 C 25.05358123779297 1.502220153808594 22.5654296875 1 20 1 M 20 0 C 31.04570007324219 0 40 8.954299926757813 40 20 C 40 31.04570007324219 31.04570007324219 40 20 40 C 8.954299926757813 40 0 31.04570007324219 0 20 C 0 8.954299926757813 8.954299926757813 0 20 0 Z" stroke="none" fill="#4caf50"/>
        </g>
      </g>
    </g>
    <g id="Groupe_902" data-name="Groupe 902" transform="translate(10591.544 3266.597)">
      <g id="Groupe_900" data-name="Groupe 900">
        <g id="Groupe_897" data-name="Groupe 897">
          <path id="Tracé_1230" data-name="Tracé 1230" d="M166.916,251.41a.378.378,0,0,0-.321-.076l-9.845,2.272a.378.378,0,0,0-.294.373v12.875a.379.379,0,0,0,.321.374l9.846,1.515a.379.379,0,0,0,.431-.317.367.367,0,0,0,.005-.058V251.706A.377.377,0,0,0,166.916,251.41Z" fill="#4caf50"/>
          <path id="Tracé_1231" data-name="Tracé 1231" d="M174.254,267.232H166.68a.378.378,0,1,1,0-.757h7.2V253.6h-7.2a.379.379,0,1,1,0-.757h7.574a.378.378,0,0,1,.378.378v13.633A.378.378,0,0,1,174.254,267.232Z" fill="#4caf50"/>
        </g>
        <g id="Groupe_898" data-name="Groupe 898">
          <path id="Tracé_1232" data-name="Tracé 1232" d="M163.651,263.446a.379.379,0,0,1-.321-.178l-3.787-6.059a.379.379,0,1,1,.629-.422l.013.021,3.787,6.059a.38.38,0,0,1-.321.579Z" fill="#fafafa"/>
          <path id="Tracé_1233" data-name="Tracé 1233" d="M159.864,263.446a.38.38,0,0,1-.378-.38.373.373,0,0,1,.058-.2l3.786-6.059a.379.379,0,0,1,.656.38l-.013.021-3.787,6.059A.38.38,0,0,1,159.864,263.446Z" fill="#fafafa"/>
        </g>
        <g id="Groupe_899" data-name="Groupe 899">
          <path id="Tracé_1234" data-name="Tracé 1234" d="M169.71,267.232a.378.378,0,0,1-.379-.378V253.221a.379.379,0,1,1,.757,0v13.633A.378.378,0,0,1,169.71,267.232Z" fill="#4caf50"/>
          <path id="Tracé_1235" data-name="Tracé 1235" d="M174.254,264.96H166.68a.378.378,0,1,1,0-.757h7.574a.378.378,0,0,1,0,.757Z" fill="#4caf50"/>
          <path id="Tracé_1236" data-name="Tracé 1236" d="M174.254,262.688H166.68a.378.378,0,1,1,0-.757h7.574a.378.378,0,0,1,0,.757Z" fill="#4caf50"/>
          <path id="Tracé_1237" data-name="Tracé 1237" d="M174.254,260.416H166.68a.378.378,0,1,1,0-.757h7.574a.378.378,0,0,1,0,.757Z" fill="#4caf50"/>
          <path id="Tracé_1238" data-name="Tracé 1238" d="M174.254,258.144H166.68a.379.379,0,1,1,0-.757h7.574a.379.379,0,0,1,0,.757Z" fill="#4caf50"/>
          <path id="Tracé_1239" data-name="Tracé 1239" d="M174.254,255.872H166.68a.378.378,0,1,1,0-.757h7.574a.378.378,0,0,1,0,.757Z" fill="#4caf50"/>
        </g>
      </g>
      <g id="Groupe_901" data-name="Groupe 901">
        <path id="Tracé_1240" data-name="Tracé 1240" d="M170.544,246.4l-5-5-5,5" fill="none" stroke="#4caf50" stroke-linecap="round" stroke-linejoin="round" stroke-width="2"/>
        <line id="Ligne_95" data-name="Ligne 95" y2="12" transform="translate(165.544 241.403)" fill="none" stroke="#4caf50" stroke-linecap="round" stroke-linejoin="round" stroke-width="2"/>
      </g>
    </g>
  </g>
</svg>
