<svg xmlns="http://www.w3.org/2000/svg" width="40" height="40" viewBox="0 0 40 40">
  <g id="Groupe_455" data-name="Groupe 455" transform="translate(-1059 -399)">
    <g id="Groupe_91" data-name="Groupe 91" transform="translate(1059 399)">
      <g id="Ellipse_359" data-name="Ellipse 359" fill="none" stroke="#47a2c1" stroke-width="1">
        <circle cx="20" cy="20" r="20" stroke="none"/>
        <circle cx="20" cy="20" r="19.5" fill="none"/>
      </g>
    </g>
    <g id="Groupe_454" data-name="Groupe 454" transform="translate(1071 408)">
      <path id="Tracé_542" data-name="Tracé 542" d="M14,2H6A2.006,2.006,0,0,0,4,4V20a2.006,2.006,0,0,0,2,2H18a2.006,2.006,0,0,0,2-2V8Z" transform="translate(-4 -2)" fill="none" stroke="#47a2c1" stroke-linecap="round" stroke-linejoin="round" stroke-width="2"/>
      <path id="Tracé_543" data-name="Tracé 543" d="M14,2V8h6" transform="translate(-4 -2)" fill="none" stroke="#3d9fc8" stroke-linecap="round" stroke-linejoin="round" stroke-width="2"/>
      <text id="C" transform="translate(3 17.2)" fill="#47a2c1" font-size="13.193" font-family="Nunito-Bold, Nunito" font-weight="700"><tspan x="0" y="0">C</tspan></text>
    </g>
  </g>
</svg>
