[
  {
    "acronym": "br",
    "name": "br",
    "id": 1,
    "createdOn": "2020-02-18T10:16:04+00:00",
    "lastModifiedOn": "2020-02-18T10:16:06+00:00",
    "searchTerms": "br"
  },
  {
    "acronym": "cm",
    "name": "cm",
    "id": 2,
    "createdOn": "2020-02-18T10:16:04+00:00",
    "lastModifiedOn": "2020-02-18T10:16:06+00:00",
    "searchTerms": "cm"
  },
  {
    "acronym": "cm2",
    "name": "centimètre carré",
    "id": 3,
    "createdOn": "2020-02-18T10:16:04+00:00",
    "lastModifiedOn": "2020-02-18T10:16:06+00:00",
    "searchTerms": "centimètre carré cm2"
  },
  {
    "acronym": "cm3",
    "name": "cm3",
    "id": 4,
    "createdOn": "2020-02-18T10:16:04+00:00",
    "lastModifiedOn": "2020-02-18T10:16:06+00:00",
    "searchTerms": "cm3"
  },
  {
    "acronym": "dm",
    "name": "dm",
    "id": 5,
    "createdOn": "2020-02-18T10:16:04+00:00",
    "lastModifiedOn": "2020-02-18T10:16:06+00:00",
    "searchTerms": "décimètre dm"
  },
  {
    "acronym": "dm2",
    "name": "décimètre carré",
    "id": 6,
    "createdOn": "2020-02-18T10:16:04+00:00",
    "lastModifiedOn": "2020-02-18T10:16:06+00:00",
    "searchTerms": "dm2"
  },
  {
    "acronym": "dm3",
    "name": "dm3",
    "id": 7,
    "createdOn": "2020-02-18T10:16:04+00:00",
    "lastModifiedOn": "2020-02-18T10:16:06+00:00",
    "searchTerms": "dm3"
  },
  {
    "acronym": "F",
    "name": "F",
    "id": 8,
    "createdOn": "2020-02-18T10:16:04+00:00",
    "lastModifiedOn": "2020-02-18T10:16:06+00:00",
    "searchTerms": "F"
  },
  {
    "acronym": "j",
    "name": "j",
    "id": 9,
    "createdOn": "2020-02-18T10:16:04+00:00",
    "lastModifiedOn": "2020-02-18T10:16:06+00:00",
    "searchTerms": "j"
  },
  {
    "acronym": "h",
    "name": "h",
    "id": 10,
    "createdOn": "2020-02-18T10:16:04+00:00",
    "lastModifiedOn": "2020-02-18T10:16:06+00:00",
    "searchTerms": "h"
  },
  {
    "acronym": "ha",
    "name": "hectare",
    "id": 11,
    "createdOn": "2020-02-18T10:16:04+00:00",
    "lastModifiedOn": "2020-02-18T10:16:06+00:00",
    "searchTerms": "hectare ha"
  },
  {
    "acronym": "g",
    "name": "gramme",
    "id": 12,
    "createdOn": "2020-02-18T10:16:04+00:00",
    "lastModifiedOn": "2020-02-18T10:16:06+00:00",
    "searchTerms": "gramme g"
  },
  {
    "acronym": "gl",
    "name": "gl",
    "id": 13,
    "createdOn": "2020-02-18T10:16:04+00:00",
    "lastModifiedOn": "2020-02-18T10:16:06+00:00",
    "searchTerms": "gl"
  },
  {
    "acronym": "kg",
    "name": "kilogramme",
    "id": 14,
    "createdOn": "2020-02-18T10:16:04+00:00",
    "lastModifiedOn": "2020-02-18T10:16:06+00:00",
    "searchTerms": "kilogramme kg"
  },
  {
    "acronym": "km",
    "name": "km",
    "id": 15,
    "createdOn": "2020-02-18T10:16:04+00:00",
    "lastModifiedOn": "2020-02-18T10:16:06+00:00",
    "searchTerms": "km"
  },
  {
    "acronym": "lot",
    "name": "lot",
    "id": 16,
    "createdOn": "2020-02-18T10:16:04+00:00",
    "lastModifiedOn": "2020-02-18T10:16:06+00:00",
    "searchTerms": "lot"
  },
  {
    "acronym": "L",
    "name": "Litre",
    "id": 17,
    "createdOn": "2020-02-18T10:16:04+00:00",
    "lastModifiedOn": "2020-02-18T10:16:06+00:00",
    "searchTerms": "Litre L"
  },
  {
    "acronym": "lb",
    "name": "lb",
    "id": 18,
    "createdOn": "2020-02-18T10:16:04+00:00",
    "lastModifiedOn": "2020-02-18T10:16:06+00:00",
    "searchTerms": "lb"
  },
  {
    "acronym": "lot",
    "name": "lot",
    "id": 19,
    "createdOn": "2020-02-18T10:16:04+00:00",
    "lastModifiedOn": "2020-02-18T10:16:06+00:00",
    "searchTerms": "lot"
  },
  {
    "acronym": "mm",
    "name": "milligramme",
    "id": 20,
    "createdOn": "2020-02-18T10:16:04+00:00",
    "lastModifiedOn": "2020-02-18T10:16:06+00:00",
    "searchTerms": "milligramme mm"
  },
  {
    "acronym": "mg",
    "name": "mg",
    "id": 21,
    "createdOn": "2020-02-18T10:16:04+00:00",
    "lastModifiedOn": "2020-02-18T10:16:06+00:00",
    "searchTerms": "mg"
  },
  {
    "acronym": "min",
    "name": "min",
    "id": 22,
    "createdOn": "2020-02-18T10:16:04+00:00",
    "lastModifiedOn": "2020-02-18T10:16:06+00:00",
    "searchTerms": "min"
  },
  {
    "acronym": "mL",
    "name": "mL",
    "id": 23,
    "createdOn": "2020-02-18T10:16:04+00:00",
    "lastModifiedOn": "2020-02-18T10:16:06+00:00",
    "searchTerms": "mL"
  },
  {
    "acronym": "m2",
    "name": "Mètre cube",
    "id": 24,
    "createdOn": "2020-02-18T10:16:04+00:00",
    "lastModifiedOn": "2020-02-18T10:16:06+00:00",
    "searchTerms": "Mètre cube m2"
  },
  {
    "acronym": "m3",
    "name": "m3",
    "id": 25,
    "createdOn": "2020-02-18T10:16:04+00:00",
    "lastModifiedOn": "2020-02-18T10:16:06+00:00",
    "searchTerms": "Mètre cube m3"
  },
  {
    "acronym": "m",
    "name": "mètre",
    "id": 26,
    "createdOn": "2020-02-18T10:16:04+00:00",
    "lastModifiedOn": "2020-02-18T10:16:06+00:00",
    "searchTerms": "mètre m"
  },
  {
    "acronym": "mm²",
    "name": "millimètre carré",
    "id": 27,
    "createdOn": "2020-02-18T10:16:04+00:00",
    "lastModifiedOn": "2020-02-18T10:16:06+00:00",
    "searchTerms": "millimètre carré mm²"
  },
  {
    "acronym": "t",
    "name": "tonne",
    "id": 28,
    "createdOn": "2020-02-18T10:16:04+00:00",
    "lastModifiedOn": "2020-02-18T10:16:06+00:00",
    "searchTerms": "tonne t"
  },
  {
    "acronym": "U",
    "name": "U",
    "id": 29,
    "createdOn": "2020-02-18T10:16:04+00:00",
    "lastModifiedOn": "2020-02-18T10:16:06+00:00",
    "searchTerms": "U"
  },
  {
    "acronym": "Rlx",
    "name": "Rlx",
    "id": 30,
    "createdOn": "2020-02-18T10:16:04+00:00",
    "lastModifiedOn": "2020-02-18T10:16:06+00:00",
    "searchTerms": "Rlx"
  }
]




