[
  {
    "id": "1",
    "Value": "Ordre service",
    "isDefault": true,
    "affectedStatus": "study",
    "newStatus": "accepted",
    "documents": null,
    "createdOn": "2020-02-21T12:50:26+00:00",
    "lastModifiedOn": "2020-02-21T12:50:27+00:00",
    "searchTerms": "Ordre service"
  },
  {
    "id": "2",
    "Value": "Autre",
    "isDefault": true,
    "affectedStatus": null,
    "newStatus": null,
    "documents": null,
    "createdOn": "2020-02-21T12:50:26+00:00",
    "lastModifiedOn": "2020-02-21T12:50:27+00:00",
    "searchTerms": "Autre"
  }
]