[
  {
    "id": "EB1A7160-3E40-4A3C-8A71-3C014B5079F2",
    "concurrencyStamp": "DE364E6D-DCF3-4A42-8242-48C03B90FC5F",
    "name": "technicien",
    "normalizedName": "TECHNICIEN",
    "type": 2,
    "permissions": [
      1,
      2
    ],
    "users": [],
    "createdOn": "2020-02-21T12:09:03.100538+00:00",
    "lastModifiedOn": "2020-02-21T12:09:03.100546+00:00",
    "searchTerms": "TECHNICIEN"
  },
  {
    "id": "02D32A53-D1B0-4115-BB99-EC679F6B559C",
    "concurrencyStamp": "F0A876C8-7378-464F-BFA6-608270300BE0",
    "name": "manager",
    "normalizedName": "MANAGER",
    "type": 3,
    "permissions": [
      1,
      2
    ],
    "users": [],
    "createdOn": "2020-02-21T12:09:03.100538+00:00",
    "lastModifiedOn": "2020-02-21T12:09:03.100546+00:00",
    "searchTerms": "TECHNICIEN"
  },
  {
    "id": "6BB8CB86-73B8-4D3F-B01D-1457D9C2C287",
    "concurrencyStamp": "81B5352D-666F-46D5-BFB2-66B09DCF56F9",
    "name": "client",
    "normalizedName": "CLIENT",
    "type": 4,
    "permissions": [
      1,
      2
    ],
    "users": [],
    "createdOn": "2020-02-21T12:09:03.100538+00:00",
    "lastModifiedOn": "2020-02-21T12:09:03.100546+00:00",
    "searchTerms": "TECHNICIEN"
  },
  {
    "id": "7B7808AF-D287-4961-B786-194D3FED4F60",
    "concurrencyStamp": "E5AF63A5-EE81-4D18-A87C-568A26720C74",
    "name": "technicienMaintenance",
    "normalizedName": "TECHNICIENMAINTENANCE",
    "type": 5,
    "permissions": [
      1,
      2
    ],
    "users": [],
    "createdOn": "2020-02-21T12:09:03.100538+00:00",
    "lastModifiedOn": "2020-02-21T12:09:03.100546+00:00",
    "searchTerms": "TECHNICIEN"
  },
  {
    "id": "3AA561C4-EE71-42C6-AAC0-66836BC99524",
    "concurrencyStamp": "8CE2B72C-94D2-4CDA-835B-A8F5242E5F76",
    "name": "technicienChantier",
    "normalizedName": "TECHNICIENCHANTIER",
    "type": 6,
    "permissions": [
      1,
      2
    ],
    "users": [],
    "createdOn": "2020-02-21T12:09:03.100538+00:00",
    "lastModifiedOn": "2020-02-21T12:09:03.100546+00:00",
    "searchTerms": "TECHNICIEN"
  }
]